<!--<?xml version="1.0" encoding="UTF-8"?>-->

<!ENTITY % inline "#PCDATA|bold|italic|span">

<!ELEMENT bold (#PCDATA)>

<!ELEMENT italic (#PCDATA)>

<!ELEMENT span (#PCDATA)>
<!ATTLIST span style CDATA #IMPLIED>
